
===========================================================================
report_tns
============================================================================
tns -114.64

===========================================================================
report_wns
============================================================================
wns -22.96

===========================================================================
report_worst_slack -max (Setup)
============================================================================
worst slack -22.96

===========================================================================
report_worst_slack -min (Hold)
============================================================================
worst slack 4.39
