Design Name: mkFloatingPointExp_fconv
Run Directory: /openlane/designs/mkFloatingPointExp_fconv/runs/RUN_2023.12.14_02.54.49
Source not found.
----------------------------------------

LVS Summary:
Source: /openlane/designs/mkFloatingPointExp_fconv/runs/RUN_2023.12.14_02.54.49/logs/signoff/mkFloatingPointExp_fconv.lef.lvs.log
Source not found.
----------------------------------------

Antenna Summary:
No antenna report found.
