Design Name: mkFloatingPointExp
Run Directory: /openlane/designs/mkFloatingPointExp/runs/RUN_2023.12.10_06.17.55
Source not found.
----------------------------------------

LVS Summary:
Source: /openlane/designs/mkFloatingPointExp/runs/RUN_2023.12.10_06.17.55/logs/signoff/mkFloatingPointExp.lef.lvs.log
Source not found.
----------------------------------------

Antenna Summary:
No antenna report found.
