
===========================================================================
report_checks -unconstrained
===========================================================================
======================= Typical Corner ===================================

Startpoint: ma_start_x[10] (input port clocked by CLK)
Endpoint: ma_start[0] (output port clocked by CLK)
Path Group: CLK
Path Type: max

Fanout     Cap    Slew   Delay    Time   Description
-----------------------------------------------------------------------------
                  0.15    0.00    0.00   clock CLK (rise edge)
                          0.00    0.00   clock network delay (ideal)
                          2.00    2.00 v input external delay
    10    0.04    0.08    0.06    2.06 v ma_start_x[10] (in)
                                         ma_start_x[10] (net)
                  0.08    0.00    2.06 v _1462_/A (sky130_fd_sc_hd__nor4_4)
    10    0.04    0.60    0.61    2.67 ^ _1462_/Y (sky130_fd_sc_hd__nor4_4)
                                         _0329_ (net)
                  0.60    0.00    2.67 ^ _1491_/B1 (sky130_fd_sc_hd__a21oi_2)
     3    0.01    0.14    0.11    2.79 v _1491_/Y (sky130_fd_sc_hd__a21oi_2)
                                         _0451_ (net)
                  0.14    0.00    2.79 v _1505_/B (sky130_fd_sc_hd__and2_4)
     2    0.01    0.04    0.22    3.01 v _1505_/X (sky130_fd_sc_hd__and2_4)
                                         _0465_ (net)
                  0.04    0.00    3.01 v _1506_/A2 (sky130_fd_sc_hd__a22oi_4)
     5    0.03    0.29    0.31    3.31 ^ _1506_/Y (sky130_fd_sc_hd__a22oi_4)
                                         _0466_ (net)
                  0.29    0.00    3.31 ^ _1507_/B1 (sky130_fd_sc_hd__o211ai_2)
     2    0.01    0.15    0.15    3.47 v _1507_/Y (sky130_fd_sc_hd__o211ai_2)
                                         _0467_ (net)
                  0.15    0.00    3.47 v _1509_/A2 (sky130_fd_sc_hd__o21ai_2)
     6    0.02    0.27    0.29    3.75 ^ _1509_/Y (sky130_fd_sc_hd__o21ai_2)
                                         _0469_ (net)
                  0.27    0.00    3.75 ^ _1512_/A2_N (sky130_fd_sc_hd__a2bb2o_2)
     1    0.00    0.04    0.31    4.06 v _1512_/X (sky130_fd_sc_hd__a2bb2o_2)
                                         _0472_ (net)
                  0.04    0.00    4.06 v _1535_/A1 (sky130_fd_sc_hd__a31o_2)
     2    0.01    0.06    0.23    4.29 v _1535_/X (sky130_fd_sc_hd__a31o_2)
                                         _0495_ (net)
                  0.06    0.00    4.29 v _1549_/A1 (sky130_fd_sc_hd__a21oi_4)
     9    0.03    0.23    0.23    4.52 ^ _1549_/Y (sky130_fd_sc_hd__a21oi_4)
                                         _0509_ (net)
                  0.23    0.00    4.52 ^ _1592_/A1 (sky130_fd_sc_hd__a31o_2)
     3    0.01    0.08    0.24    4.76 ^ _1592_/X (sky130_fd_sc_hd__a31o_2)
                                         _0552_ (net)
                  0.08    0.00    4.76 ^ _1593_/B (sky130_fd_sc_hd__xor2_2)
     5    0.02    0.29    0.28    5.04 ^ _1593_/X (sky130_fd_sc_hd__xor2_2)
                                         _0553_ (net)
                  0.29    0.00    5.04 ^ _1595_/A2 (sky130_fd_sc_hd__a21oi_2)
     2    0.01    0.09    0.14    5.18 v _1595_/Y (sky130_fd_sc_hd__a21oi_2)
                                         _0555_ (net)
                  0.09    0.00    5.18 v _1615_/B (sky130_fd_sc_hd__xnor2_2)
     4    0.01    0.19    0.20    5.37 ^ _1615_/Y (sky130_fd_sc_hd__xnor2_2)
                                         _0575_ (net)
                  0.19    0.00    5.37 ^ _1616_/C_N (sky130_fd_sc_hd__or3b_4)
     3    0.01    0.08    0.43    5.81 v _1616_/X (sky130_fd_sc_hd__or3b_4)
                                         _0576_ (net)
                  0.08    0.00    5.81 v _1648_/B (sky130_fd_sc_hd__or3_4)
     5    0.01    0.08    0.41    6.22 v _1648_/X (sky130_fd_sc_hd__or3_4)
                                         _0610_ (net)
                  0.08    0.00    6.22 v _1668_/B (sky130_fd_sc_hd__and2_4)
     2    0.01    0.03    0.18    6.40 v _1668_/X (sky130_fd_sc_hd__and2_4)
                                         _0632_ (net)
                  0.03    0.00    6.40 v _1675_/A (sky130_fd_sc_hd__buf_6)
    10    0.03    0.04    0.13    6.53 v _1675_/X (sky130_fd_sc_hd__buf_6)
                                         _0640_ (net)
                  0.04    0.00    6.53 v _1676_/B (sky130_fd_sc_hd__or3_4)
     2    0.00    0.06    0.37    6.90 v _1676_/X (sky130_fd_sc_hd__or3_4)
                                         _0641_ (net)
                  0.06    0.00    6.90 v _1677_/A0 (sky130_fd_sc_hd__mux2_2)
     2    0.00    0.05    0.28    7.18 v _1677_/X (sky130_fd_sc_hd__mux2_2)
                                         _0642_ (net)
                  0.05    0.00    7.18 v _1678_/A0 (sky130_fd_sc_hd__mux2_2)
     3    0.01    0.07    0.30    7.48 v _1678_/X (sky130_fd_sc_hd__mux2_2)
                                         _0643_ (net)
                  0.07    0.00    7.48 v _1693_/A1 (sky130_fd_sc_hd__a31o_2)
     1    0.00    0.04    0.22    7.69 v _1693_/X (sky130_fd_sc_hd__a31o_2)
                                         _0660_ (net)
                  0.04    0.00    7.69 v _1694_/C1 (sky130_fd_sc_hd__o221a_4)
     6    0.02    0.07    0.14    7.84 v _1694_/X (sky130_fd_sc_hd__o221a_4)
                                         _0661_ (net)
                  0.07    0.00    7.84 v _1703_/A1 (sky130_fd_sc_hd__a41o_2)
     2    0.01    0.06    0.25    8.09 v _1703_/X (sky130_fd_sc_hd__a41o_2)
                                         _0671_ (net)
                  0.06    0.00    8.09 v _1715_/B (sky130_fd_sc_hd__xnor2_2)
     2    0.01    0.07    0.16    8.24 v _1715_/Y (sky130_fd_sc_hd__xnor2_2)
                                         _0684_ (net)
                  0.07    0.00    8.24 v _1717_/C (sky130_fd_sc_hd__and3_2)
     1    0.00    0.04    0.23    8.47 v _1717_/X (sky130_fd_sc_hd__and3_2)
                                         _0686_ (net)
                  0.04    0.00    8.47 v _1718_/B1 (sky130_fd_sc_hd__a31o_4)
     2    0.02    0.05    0.24    8.71 v _1718_/X (sky130_fd_sc_hd__a31o_4)
                                         _0687_ (net)
                  0.05    0.00    8.71 v _1720_/A2 (sky130_fd_sc_hd__a21oi_4)
     3    0.02    0.16    0.20    8.91 ^ _1720_/Y (sky130_fd_sc_hd__a21oi_4)
                                         _0689_ (net)
                  0.16    0.00    8.91 ^ _1747_/A2 (sky130_fd_sc_hd__a21oi_2)
     2    0.00    0.05    0.08    8.99 v _1747_/Y (sky130_fd_sc_hd__a21oi_2)
                                         _0719_ (net)
                  0.05    0.00    8.99 v _1748_/A (sky130_fd_sc_hd__buf_4)
    10    0.02    0.05    0.17    9.15 v _1748_/X (sky130_fd_sc_hd__buf_4)
                                         _0720_ (net)
                  0.05    0.00    9.15 v _1769_/A (sky130_fd_sc_hd__or4b_4)
     3    0.01    0.09    0.57    9.73 v _1769_/X (sky130_fd_sc_hd__or4b_4)
                                         _0743_ (net)
                  0.09    0.00    9.73 v _1850_/A3 (sky130_fd_sc_hd__a32o_2)
     4    0.01    0.07    0.33   10.06 v _1850_/X (sky130_fd_sc_hd__a32o_2)
                                         _0832_ (net)
                  0.07    0.00   10.06 v _1859_/A1 (sky130_fd_sc_hd__o211a_4)
     1    0.00    0.04    0.26   10.32 v _1859_/X (sky130_fd_sc_hd__o211a_4)
                                         _0842_ (net)
                  0.04    0.00   10.32 v _1862_/A3 (sky130_fd_sc_hd__a31o_4)
     8    0.02    0.06    0.27   10.59 v _1862_/X (sky130_fd_sc_hd__a31o_4)
                                         _0846_ (net)
                  0.06    0.00   10.59 v _1919_/A2 (sky130_fd_sc_hd__a22o_2)
     3    0.01    0.06    0.29   10.88 v _1919_/X (sky130_fd_sc_hd__a22o_2)
                                         _0908_ (net)
                  0.06    0.00   10.88 v _1921_/A2 (sky130_fd_sc_hd__a21o_2)
     2    0.01    0.04    0.23   11.12 v _1921_/X (sky130_fd_sc_hd__a21o_2)
                                         _0910_ (net)
                  0.04    0.00   11.12 v _1923_/A2 (sky130_fd_sc_hd__a21o_2)
     3    0.01    0.06    0.24   11.36 v _1923_/X (sky130_fd_sc_hd__a21o_2)
                                         _0913_ (net)
                  0.06    0.00   11.36 v _1937_/A2 (sky130_fd_sc_hd__a21boi_2)
     2    0.01    0.20    0.22   11.58 ^ _1937_/Y (sky130_fd_sc_hd__a21boi_2)
                                         _0928_ (net)
                  0.20    0.00   11.58 ^ _1938_/B2 (sky130_fd_sc_hd__o32ai_4)
     3    0.02    0.11    0.14   11.73 v _1938_/Y (sky130_fd_sc_hd__o32ai_4)
                                         _0929_ (net)
                  0.11    0.00   11.73 v _1946_/A1 (sky130_fd_sc_hd__a21o_4)
     2    0.01    0.05    0.25   11.97 v _1946_/X (sky130_fd_sc_hd__a21o_4)
                                         _0938_ (net)
                  0.05    0.00   11.97 v _1948_/A3 (sky130_fd_sc_hd__a31o_4)
     7    0.02    0.06    0.27   12.25 v _1948_/X (sky130_fd_sc_hd__a31o_4)
                                         _0940_ (net)
                  0.06    0.00   12.25 v _1968_/A2 (sky130_fd_sc_hd__a21o_2)
     1    0.00    0.03    0.21   12.46 v _1968_/X (sky130_fd_sc_hd__a21o_2)
                                         _0962_ (net)
                  0.03    0.00   12.46 v _1970_/A2 (sky130_fd_sc_hd__a2111o_2)
     1    0.00    0.06    0.46   12.93 v _1970_/X (sky130_fd_sc_hd__a2111o_2)
                                         _0964_ (net)
                  0.06    0.00   12.93 v _1978_/B2 (sky130_fd_sc_hd__a221o_2)
     1    0.00    0.06    0.38   13.31 v _1978_/X (sky130_fd_sc_hd__a221o_2)
                                         _0973_ (net)
                  0.06    0.00   13.31 v _1979_/A3 (sky130_fd_sc_hd__a31oi_2)
     1    0.00    0.14    0.20   13.50 ^ _1979_/Y (sky130_fd_sc_hd__a31oi_2)
                                         _0974_ (net)
                  0.14    0.00   13.50 ^ _1982_/B1 (sky130_fd_sc_hd__a211oi_2)
     3    0.01    0.07    0.07   13.58 v _1982_/Y (sky130_fd_sc_hd__a211oi_2)
                                         _0978_ (net)
                  0.07    0.00   13.58 v _1992_/A1 (sky130_fd_sc_hd__a31o_2)
     1    0.00    0.04    0.21   13.79 v _1992_/X (sky130_fd_sc_hd__a31o_2)
                                         _0989_ (net)
                  0.04    0.00   13.79 v _2000_/A2 (sky130_fd_sc_hd__a21o_2)
     3    0.01    0.05    0.23   14.02 v _2000_/X (sky130_fd_sc_hd__a21o_2)
                                         _0997_ (net)
                  0.05    0.00   14.02 v _2013_/A2 (sky130_fd_sc_hd__a221o_2)
     6    0.03    0.12    0.50   14.51 v _2013_/X (sky130_fd_sc_hd__a221o_2)
                                         _1012_ (net)
                  0.12    0.00   14.51 v _2017_/A (sky130_fd_sc_hd__xnor2_4)
     5    0.02    0.22    0.27   14.79 ^ _2017_/Y (sky130_fd_sc_hd__xnor2_4)
                                         _1016_ (net)
                  0.22    0.00   14.79 ^ _2041_/A2 (sky130_fd_sc_hd__o211ai_2)
     3    0.01    0.09    0.13   14.91 v _2041_/Y (sky130_fd_sc_hd__o211ai_2)
                                         _1042_ (net)
                  0.09    0.00   14.91 v _2043_/A3 (sky130_fd_sc_hd__a31o_2)
     3    0.01    0.05    0.29   15.21 v _2043_/X (sky130_fd_sc_hd__a31o_2)
                                         _1045_ (net)
                  0.05    0.00   15.21 v _2102_/A1 (sky130_fd_sc_hd__o31a_2)
     2    0.01    0.07    0.38   15.59 v _2102_/X (sky130_fd_sc_hd__o31a_2)
                                         _1110_ (net)
                  0.07    0.00   15.59 v _2111_/C (sky130_fd_sc_hd__nand3_2)
     2    0.00    0.05    0.08   15.67 ^ _2111_/Y (sky130_fd_sc_hd__nand3_2)
                                         _1119_ (net)
                  0.05    0.00   15.67 ^ _2135_/B1_N (sky130_fd_sc_hd__a21bo_2)
     2    0.01    0.05    0.25   15.92 v _2135_/X (sky130_fd_sc_hd__a21bo_2)
                                         _1146_ (net)
                  0.05    0.00   15.92 v _2136_/B (sky130_fd_sc_hd__xnor2_2)
     5    0.03    0.36    0.32   16.23 ^ _2136_/Y (sky130_fd_sc_hd__xnor2_2)
                                         _1147_ (net)
                  0.36    0.00   16.23 ^ _2144_/A (sky130_fd_sc_hd__nor2b_4)
     7    0.02    0.09    0.11   16.34 v _2144_/Y (sky130_fd_sc_hd__nor2b_4)
                                         _1156_ (net)
                  0.09    0.00   16.34 v _2145_/C (sky130_fd_sc_hd__and3_4)
     3    0.01    0.04    0.22   16.56 v _2145_/X (sky130_fd_sc_hd__and3_4)
                                         _1157_ (net)
                  0.04    0.00   16.56 v _2187_/A1 (sky130_fd_sc_hd__o31a_4)
     6    0.01    0.07    0.38   16.94 v _2187_/X (sky130_fd_sc_hd__o31a_4)
                                         _1203_ (net)
                  0.07    0.00   16.94 v _2195_/C (sky130_fd_sc_hd__or3_4)
     2    0.01    0.07    0.35   17.30 v _2195_/X (sky130_fd_sc_hd__or3_4)
                                         _1212_ (net)
                  0.07    0.00   17.30 v _2197_/A0 (sky130_fd_sc_hd__mux2_2)
     2    0.01    0.07    0.30   17.60 v _2197_/X (sky130_fd_sc_hd__mux2_2)
                                         _1214_ (net)
                  0.07    0.00   17.60 v _2201_/B1 (sky130_fd_sc_hd__o2bb2a_4)
     2    0.00    0.03    0.23   17.83 v _2201_/X (sky130_fd_sc_hd__o2bb2a_4)
                                         _1218_ (net)
                  0.03    0.00   17.83 v _2226_/A2 (sky130_fd_sc_hd__a32o_2)
     1    0.00    0.05    0.27   18.10 v _2226_/X (sky130_fd_sc_hd__a32o_2)
                                         _1246_ (net)
                  0.05    0.00   18.10 v _2227_/B2 (sky130_fd_sc_hd__a22o_4)
     5    0.01    0.05    0.25   18.35 v _2227_/X (sky130_fd_sc_hd__a22o_4)
                                         _1247_ (net)
                  0.05    0.00   18.35 v _2237_/A2 (sky130_fd_sc_hd__a21oi_2)
     1    0.01    0.15    0.18   18.53 ^ _2237_/Y (sky130_fd_sc_hd__a21oi_2)
                                         _1258_ (net)
                  0.15    0.00   18.53 ^ _2238_/A (sky130_fd_sc_hd__xnor2_2)
     2    0.01    0.18    0.16   18.69 ^ _2238_/Y (sky130_fd_sc_hd__xnor2_2)
                                         _1259_ (net)
                  0.18    0.00   18.69 ^ _2240_/A_N (sky130_fd_sc_hd__and2b_2)
     1    0.00    0.03    0.24   18.93 v _2240_/X (sky130_fd_sc_hd__and2b_2)
                                         _1261_ (net)
                  0.03    0.00   18.93 v _2241_/B1 (sky130_fd_sc_hd__a21o_2)
     2    0.01    0.06    0.22   19.15 v _2241_/X (sky130_fd_sc_hd__a21o_2)
                                         _1262_ (net)
                  0.06    0.00   19.15 v _2243_/A2 (sky130_fd_sc_hd__a21o_4)
     2    0.02    0.05    0.25   19.40 v _2243_/X (sky130_fd_sc_hd__a21o_4)
                                         _1265_ (net)
                  0.05    0.00   19.40 v _2250_/A1 (sky130_fd_sc_hd__a21oi_4)
     3    0.02    0.20    0.20   19.60 ^ _2250_/Y (sky130_fd_sc_hd__a21oi_4)
                                         _1272_ (net)
                  0.20    0.00   19.60 ^ _2331_/A (sky130_fd_sc_hd__xor2_2)
     7    0.03    0.37    0.36   19.96 ^ _2331_/X (sky130_fd_sc_hd__xor2_2)
                                         _1361_ (net)
                  0.37    0.00   19.96 ^ _2332_/B1 (sky130_fd_sc_hd__a21oi_2)
     2    0.01    0.09    0.07   20.03 v _2332_/Y (sky130_fd_sc_hd__a21oi_2)
                                         _0001_ (net)
                  0.09    0.00   20.03 v _2336_/A2 (sky130_fd_sc_hd__a211o_2)
     1    0.00    0.04    0.35   20.38 v _2336_/X (sky130_fd_sc_hd__a211o_2)
                                         _0005_ (net)
                  0.04    0.00   20.38 v _2337_/A2 (sky130_fd_sc_hd__a21o_2)
     4    0.01    0.06    0.25   20.63 v _2337_/X (sky130_fd_sc_hd__a21o_2)
                                         _0006_ (net)
                  0.06    0.00   20.63 v _2340_/A1 (sky130_fd_sc_hd__a21o_2)
     2    0.01    0.06    0.23   20.86 v _2340_/X (sky130_fd_sc_hd__a21o_2)
                                         _0009_ (net)
                  0.06    0.00   20.86 v _2361_/A (sky130_fd_sc_hd__xor2_2)
     2    0.01    0.20    0.23   21.09 ^ _2361_/X (sky130_fd_sc_hd__xor2_2)
                                         _0032_ (net)
                  0.20    0.00   21.09 ^ _2370_/B2 (sky130_fd_sc_hd__a2bb2oi_2)
     2    0.01    0.08    0.11   21.20 v _2370_/Y (sky130_fd_sc_hd__a2bb2oi_2)
                                         _0042_ (net)
                  0.08    0.00   21.20 v _2373_/A (sky130_fd_sc_hd__xnor2_2)
     2    0.01    0.07    0.17   21.37 v _2373_/Y (sky130_fd_sc_hd__xnor2_2)
                                         _0046_ (net)
                  0.07    0.00   21.37 v _2379_/B (sky130_fd_sc_hd__and2_2)
     2    0.00    0.04    0.21   21.58 v _2379_/X (sky130_fd_sc_hd__and2_2)
                                         _0052_ (net)
                  0.04    0.00   21.58 v _2384_/B (sky130_fd_sc_hd__or3_4)
     2    0.00    0.06    0.37   21.95 v _2384_/X (sky130_fd_sc_hd__or3_4)
                                         _0058_ (net)
                  0.06    0.00   21.95 v _2386_/A2 (sky130_fd_sc_hd__a21o_2)
     4    0.02    0.08    0.28   22.24 v _2386_/X (sky130_fd_sc_hd__a21o_2)
                                         _0060_ (net)
                  0.08    0.00   22.24 v _2400_/A (sky130_fd_sc_hd__xnor2_2)
     3    0.01    0.06    0.16   22.40 v _2400_/Y (sky130_fd_sc_hd__xnor2_2)
                                         _0075_ (net)
                  0.06    0.00   22.40 v _2405_/A0 (sky130_fd_sc_hd__mux2_2)
     3    0.00    0.06    0.28   22.68 v _2405_/X (sky130_fd_sc_hd__mux2_2)
                                         _0081_ (net)
                  0.06    0.00   22.68 v _2406_/B (sky130_fd_sc_hd__and2_2)
     4    0.01    0.06    0.23   22.91 v _2406_/X (sky130_fd_sc_hd__and2_2)
                                         _0082_ (net)
                  0.06    0.00   22.91 v _2438_/A1 (sky130_fd_sc_hd__a211o_2)
     5    0.03    0.11    0.39   23.30 v _2438_/X (sky130_fd_sc_hd__a211o_2)
                                         _0117_ (net)
                  0.11    0.00   23.30 v _2441_/A (sky130_fd_sc_hd__xnor2_4)
     5    0.02    0.18    0.24   23.53 ^ _2441_/Y (sky130_fd_sc_hd__xnor2_4)
                                         _0120_ (net)
                  0.18    0.00   23.53 ^ _2442_/B (sky130_fd_sc_hd__xnor2_2)
     2    0.00    0.11    0.14   23.67 ^ _2442_/Y (sky130_fd_sc_hd__xnor2_2)
                                         _0122_ (net)
                  0.11    0.00   23.67 ^ _2456_/B (sky130_fd_sc_hd__and3_2)
     1    0.00    0.04    0.18   23.85 ^ _2456_/X (sky130_fd_sc_hd__and3_2)
                                         _0137_ (net)
                  0.04    0.00   23.85 ^ _2457_/C_N (sky130_fd_sc_hd__or3b_2)
     1    0.00    0.07    0.45   24.29 v _2457_/X (sky130_fd_sc_hd__or3b_2)
                                         _0138_ (net)
                  0.07    0.00   24.29 v _2458_/A (sky130_fd_sc_hd__buf_4)
     6    0.02    0.04    0.17   24.47 v _2458_/X (sky130_fd_sc_hd__buf_4)
                                         _0139_ (net)
                  0.04    0.00   24.47 v _2468_/A2 (sky130_fd_sc_hd__a221o_2)
     2    0.01    0.06    0.41   24.88 v _2468_/X (sky130_fd_sc_hd__a221o_2)
                                         _0150_ (net)
                  0.06    0.00   24.88 v _2483_/D_N (sky130_fd_sc_hd__or4b_4)
     2    0.00    0.03    0.21   25.09 ^ _2483_/X (sky130_fd_sc_hd__or4b_4)
                                         _0167_ (net)
                  0.03    0.00   25.09 ^ _2518_/A2 (sky130_fd_sc_hd__a21o_2)
     2    0.01    0.08    0.16   25.24 ^ _2518_/X (sky130_fd_sc_hd__a21o_2)
                                         _0205_ (net)
                  0.08    0.00   25.24 ^ _2519_/A2 (sky130_fd_sc_hd__a21o_4)
     2    0.03    0.09    0.17   25.42 ^ _2519_/X (sky130_fd_sc_hd__a21o_4)
                                         _0206_ (net)
                  0.09    0.00   25.42 ^ _2529_/A1 (sky130_fd_sc_hd__a21oi_4)
     2    0.01    0.07    0.07   25.48 v _2529_/Y (sky130_fd_sc_hd__a21oi_4)
                                         _0217_ (net)
                  0.07    0.00   25.48 v _2543_/A (sky130_fd_sc_hd__or3_4)
     5    0.02    0.09    0.45   25.93 v _2543_/X (sky130_fd_sc_hd__or3_4)
                                         _0233_ (net)
                  0.09    0.00   25.93 v _2595_/B1 (sky130_fd_sc_hd__a21oi_2)
     9    0.03    0.39    0.34   26.27 ^ _2595_/Y (sky130_fd_sc_hd__a21oi_2)
                                         _0290_ (net)
                  0.39    0.00   26.27 ^ _2599_/A1 (sky130_fd_sc_hd__a22oi_2)
    10    0.03    0.18    0.24   26.52 v _2599_/Y (sky130_fd_sc_hd__a22oi_2)
                                         _0294_ (net)
                  0.18    0.00   26.52 v _2621_/A2 (sky130_fd_sc_hd__o311a_2)
     1    0.00    0.05    0.43   26.94 v _2621_/X (sky130_fd_sc_hd__o311a_2)
                                         _0317_ (net)
                  0.05    0.00   26.94 v _2622_/B1 (sky130_fd_sc_hd__a31o_2)
     1    0.00    0.04    0.22   27.16 v _2622_/X (sky130_fd_sc_hd__a31o_2)
                                         _0319_ (net)
                  0.04    0.00   27.16 v _2633_/A1 (sky130_fd_sc_hd__a21o_2)
     4    0.01    0.06    0.22   27.38 v _2633_/X (sky130_fd_sc_hd__a21o_2)
                                         _0331_ (net)
                  0.06    0.00   27.38 v _2634_/A3 (sky130_fd_sc_hd__a31o_4)
     3    0.01    0.05    0.27   27.65 v _2634_/X (sky130_fd_sc_hd__a31o_4)
                                         _0332_ (net)
                  0.05    0.00   27.65 v _2647_/A (sky130_fd_sc_hd__xor2_2)
     2    0.01    0.17    0.20   27.85 ^ _2647_/X (sky130_fd_sc_hd__xor2_2)
                                         _0346_ (net)
                  0.17    0.00   27.85 ^ _2649_/A_N (sky130_fd_sc_hd__and2b_2)
     1    0.00    0.03    0.24   28.09 v _2649_/X (sky130_fd_sc_hd__and2b_2)
                                         _0348_ (net)
                  0.03    0.00   28.09 v _2650_/B1 (sky130_fd_sc_hd__a21o_2)
     2    0.01    0.06    0.22   28.32 v _2650_/X (sky130_fd_sc_hd__a21o_2)
                                         _0349_ (net)
                  0.06    0.00   28.32 v _2652_/A2 (sky130_fd_sc_hd__a21o_4)
     2    0.02    0.05    0.25   28.56 v _2652_/X (sky130_fd_sc_hd__a21o_4)
                                         _0352_ (net)
                  0.05    0.00   28.56 v _2662_/A (sky130_fd_sc_hd__xnor2_2)
     4    0.01    0.15    0.18   28.74 ^ _2662_/Y (sky130_fd_sc_hd__xnor2_2)
                                         _0363_ (net)
                  0.15    0.00   28.74 ^ _2672_/A_N (sky130_fd_sc_hd__and3b_2)
     2    0.01    0.05    0.25   28.99 v _2672_/X (sky130_fd_sc_hd__and3b_2)
                                         _0374_ (net)
                  0.05    0.00   28.99 v _2679_/C (sky130_fd_sc_hd__or4_4)
     1    0.00    0.08    0.49   29.47 v _2679_/X (sky130_fd_sc_hd__or4_4)
                                         _0381_ (net)
                  0.08    0.00   29.47 v _2686_/A1 (sky130_fd_sc_hd__a31o_2)
     3    0.01    0.05    0.23   29.71 v _2686_/X (sky130_fd_sc_hd__a31o_2)
                                         _0389_ (net)
                  0.05    0.00   29.71 v _2713_/B1_N (sky130_fd_sc_hd__a21bo_4)
     1    0.01    0.03    0.18   29.89 ^ _2713_/X (sky130_fd_sc_hd__a21bo_4)
                                         _0419_ (net)
                  0.03    0.00   29.89 ^ _2714_/A2 (sky130_fd_sc_hd__a21boi_2)
     1    0.00    0.04    0.05   29.93 v _2714_/Y (sky130_fd_sc_hd__a21boi_2)
                                         _0420_ (net)
                  0.04    0.00   29.93 v _2724_/A2 (sky130_fd_sc_hd__o311a_4)
     4    0.03    0.09    0.41   30.35 v _2724_/X (sky130_fd_sc_hd__o311a_4)
                                         _0431_ (net)
                  0.09    0.00   30.35 v _2725_/A3 (sky130_fd_sc_hd__o31a_4)
     1    0.03    0.09    0.36   30.71 v _2725_/X (sky130_fd_sc_hd__o31a_4)
                                         ma_start[0] (net)
                  0.09    0.00   30.71 v ma_start[0] (out)
                                 30.71   data arrival time

                  0.15   10.00   10.00   clock CLK (rise edge)
                          0.00   10.00   clock network delay (ideal)
                         -0.25    9.75   clock uncertainty
                          0.00    9.75   clock reconvergence pessimism
                         -2.00    7.75   output external delay
                                  7.75   data required time
-----------------------------------------------------------------------------
                                  7.75   data required time
                                -30.71   data arrival time
-----------------------------------------------------------------------------
                                -22.96   slack (VIOLATED)




===========================================================================
report_checks --slack_max -0.01
============================================================================
======================= Typical Corner ===================================

Startpoint: ma_start_x[10] (input port clocked by CLK)
Endpoint: ma_start[0] (output port clocked by CLK)
Path Group: CLK
Path Type: max

Fanout     Cap    Slew   Delay    Time   Description
-----------------------------------------------------------------------------
                  0.15    0.00    0.00   clock CLK (rise edge)
                          0.00    0.00   clock network delay (ideal)
                          2.00    2.00 v input external delay
    10    0.04    0.08    0.06    2.06 v ma_start_x[10] (in)
                                         ma_start_x[10] (net)
                  0.08    0.00    2.06 v _1462_/A (sky130_fd_sc_hd__nor4_4)
    10    0.04    0.60    0.61    2.67 ^ _1462_/Y (sky130_fd_sc_hd__nor4_4)
                                         _0329_ (net)
                  0.60    0.00    2.67 ^ _1491_/B1 (sky130_fd_sc_hd__a21oi_2)
     3    0.01    0.14    0.11    2.79 v _1491_/Y (sky130_fd_sc_hd__a21oi_2)
                                         _0451_ (net)
                  0.14    0.00    2.79 v _1505_/B (sky130_fd_sc_hd__and2_4)
     2    0.01    0.04    0.22    3.01 v _1505_/X (sky130_fd_sc_hd__and2_4)
                                         _0465_ (net)
                  0.04    0.00    3.01 v _1506_/A2 (sky130_fd_sc_hd__a22oi_4)
     5    0.03    0.29    0.31    3.31 ^ _1506_/Y (sky130_fd_sc_hd__a22oi_4)
                                         _0466_ (net)
                  0.29    0.00    3.31 ^ _1507_/B1 (sky130_fd_sc_hd__o211ai_2)
     2    0.01    0.15    0.15    3.47 v _1507_/Y (sky130_fd_sc_hd__o211ai_2)
                                         _0467_ (net)
                  0.15    0.00    3.47 v _1509_/A2 (sky130_fd_sc_hd__o21ai_2)
     6    0.02    0.27    0.29    3.75 ^ _1509_/Y (sky130_fd_sc_hd__o21ai_2)
                                         _0469_ (net)
                  0.27    0.00    3.75 ^ _1512_/A2_N (sky130_fd_sc_hd__a2bb2o_2)
     1    0.00    0.04    0.31    4.06 v _1512_/X (sky130_fd_sc_hd__a2bb2o_2)
                                         _0472_ (net)
                  0.04    0.00    4.06 v _1535_/A1 (sky130_fd_sc_hd__a31o_2)
     2    0.01    0.06    0.23    4.29 v _1535_/X (sky130_fd_sc_hd__a31o_2)
                                         _0495_ (net)
                  0.06    0.00    4.29 v _1549_/A1 (sky130_fd_sc_hd__a21oi_4)
     9    0.03    0.23    0.23    4.52 ^ _1549_/Y (sky130_fd_sc_hd__a21oi_4)
                                         _0509_ (net)
                  0.23    0.00    4.52 ^ _1592_/A1 (sky130_fd_sc_hd__a31o_2)
     3    0.01    0.08    0.24    4.76 ^ _1592_/X (sky130_fd_sc_hd__a31o_2)
                                         _0552_ (net)
                  0.08    0.00    4.76 ^ _1593_/B (sky130_fd_sc_hd__xor2_2)
     5    0.02    0.29    0.28    5.04 ^ _1593_/X (sky130_fd_sc_hd__xor2_2)
                                         _0553_ (net)
                  0.29    0.00    5.04 ^ _1595_/A2 (sky130_fd_sc_hd__a21oi_2)
     2    0.01    0.09    0.14    5.18 v _1595_/Y (sky130_fd_sc_hd__a21oi_2)
                                         _0555_ (net)
                  0.09    0.00    5.18 v _1615_/B (sky130_fd_sc_hd__xnor2_2)
     4    0.01    0.19    0.20    5.37 ^ _1615_/Y (sky130_fd_sc_hd__xnor2_2)
                                         _0575_ (net)
                  0.19    0.00    5.37 ^ _1616_/C_N (sky130_fd_sc_hd__or3b_4)
     3    0.01    0.08    0.43    5.81 v _1616_/X (sky130_fd_sc_hd__or3b_4)
                                         _0576_ (net)
                  0.08    0.00    5.81 v _1648_/B (sky130_fd_sc_hd__or3_4)
     5    0.01    0.08    0.41    6.22 v _1648_/X (sky130_fd_sc_hd__or3_4)
                                         _0610_ (net)
                  0.08    0.00    6.22 v _1668_/B (sky130_fd_sc_hd__and2_4)
     2    0.01    0.03    0.18    6.40 v _1668_/X (sky130_fd_sc_hd__and2_4)
                                         _0632_ (net)
                  0.03    0.00    6.40 v _1675_/A (sky130_fd_sc_hd__buf_6)
    10    0.03    0.04    0.13    6.53 v _1675_/X (sky130_fd_sc_hd__buf_6)
                                         _0640_ (net)
                  0.04    0.00    6.53 v _1676_/B (sky130_fd_sc_hd__or3_4)
     2    0.00    0.06    0.37    6.90 v _1676_/X (sky130_fd_sc_hd__or3_4)
                                         _0641_ (net)
                  0.06    0.00    6.90 v _1677_/A0 (sky130_fd_sc_hd__mux2_2)
     2    0.00    0.05    0.28    7.18 v _1677_/X (sky130_fd_sc_hd__mux2_2)
                                         _0642_ (net)
                  0.05    0.00    7.18 v _1678_/A0 (sky130_fd_sc_hd__mux2_2)
     3    0.01    0.07    0.30    7.48 v _1678_/X (sky130_fd_sc_hd__mux2_2)
                                         _0643_ (net)
                  0.07    0.00    7.48 v _1693_/A1 (sky130_fd_sc_hd__a31o_2)
     1    0.00    0.04    0.22    7.69 v _1693_/X (sky130_fd_sc_hd__a31o_2)
                                         _0660_ (net)
                  0.04    0.00    7.69 v _1694_/C1 (sky130_fd_sc_hd__o221a_4)
     6    0.02    0.07    0.14    7.84 v _1694_/X (sky130_fd_sc_hd__o221a_4)
                                         _0661_ (net)
                  0.07    0.00    7.84 v _1703_/A1 (sky130_fd_sc_hd__a41o_2)
     2    0.01    0.06    0.25    8.09 v _1703_/X (sky130_fd_sc_hd__a41o_2)
                                         _0671_ (net)
                  0.06    0.00    8.09 v _1715_/B (sky130_fd_sc_hd__xnor2_2)
     2    0.01    0.07    0.16    8.24 v _1715_/Y (sky130_fd_sc_hd__xnor2_2)
                                         _0684_ (net)
                  0.07    0.00    8.24 v _1717_/C (sky130_fd_sc_hd__and3_2)
     1    0.00    0.04    0.23    8.47 v _1717_/X (sky130_fd_sc_hd__and3_2)
                                         _0686_ (net)
                  0.04    0.00    8.47 v _1718_/B1 (sky130_fd_sc_hd__a31o_4)
     2    0.02    0.05    0.24    8.71 v _1718_/X (sky130_fd_sc_hd__a31o_4)
                                         _0687_ (net)
                  0.05    0.00    8.71 v _1720_/A2 (sky130_fd_sc_hd__a21oi_4)
     3    0.02    0.16    0.20    8.91 ^ _1720_/Y (sky130_fd_sc_hd__a21oi_4)
                                         _0689_ (net)
                  0.16    0.00    8.91 ^ _1747_/A2 (sky130_fd_sc_hd__a21oi_2)
     2    0.00    0.05    0.08    8.99 v _1747_/Y (sky130_fd_sc_hd__a21oi_2)
                                         _0719_ (net)
                  0.05    0.00    8.99 v _1748_/A (sky130_fd_sc_hd__buf_4)
    10    0.02    0.05    0.17    9.15 v _1748_/X (sky130_fd_sc_hd__buf_4)
                                         _0720_ (net)
                  0.05    0.00    9.15 v _1769_/A (sky130_fd_sc_hd__or4b_4)
     3    0.01    0.09    0.57    9.73 v _1769_/X (sky130_fd_sc_hd__or4b_4)
                                         _0743_ (net)
                  0.09    0.00    9.73 v _1850_/A3 (sky130_fd_sc_hd__a32o_2)
     4    0.01    0.07    0.33   10.06 v _1850_/X (sky130_fd_sc_hd__a32o_2)
                                         _0832_ (net)
                  0.07    0.00   10.06 v _1859_/A1 (sky130_fd_sc_hd__o211a_4)
     1    0.00    0.04    0.26   10.32 v _1859_/X (sky130_fd_sc_hd__o211a_4)
                                         _0842_ (net)
                  0.04    0.00   10.32 v _1862_/A3 (sky130_fd_sc_hd__a31o_4)
     8    0.02    0.06    0.27   10.59 v _1862_/X (sky130_fd_sc_hd__a31o_4)
                                         _0846_ (net)
                  0.06    0.00   10.59 v _1919_/A2 (sky130_fd_sc_hd__a22o_2)
     3    0.01    0.06    0.29   10.88 v _1919_/X (sky130_fd_sc_hd__a22o_2)
                                         _0908_ (net)
                  0.06    0.00   10.88 v _1921_/A2 (sky130_fd_sc_hd__a21o_2)
     2    0.01    0.04    0.23   11.12 v _1921_/X (sky130_fd_sc_hd__a21o_2)
                                         _0910_ (net)
                  0.04    0.00   11.12 v _1923_/A2 (sky130_fd_sc_hd__a21o_2)
     3    0.01    0.06    0.24   11.36 v _1923_/X (sky130_fd_sc_hd__a21o_2)
                                         _0913_ (net)
                  0.06    0.00   11.36 v _1937_/A2 (sky130_fd_sc_hd__a21boi_2)
     2    0.01    0.20    0.22   11.58 ^ _1937_/Y (sky130_fd_sc_hd__a21boi_2)
                                         _0928_ (net)
                  0.20    0.00   11.58 ^ _1938_/B2 (sky130_fd_sc_hd__o32ai_4)
     3    0.02    0.11    0.14   11.73 v _1938_/Y (sky130_fd_sc_hd__o32ai_4)
                                         _0929_ (net)
                  0.11    0.00   11.73 v _1946_/A1 (sky130_fd_sc_hd__a21o_4)
     2    0.01    0.05    0.25   11.97 v _1946_/X (sky130_fd_sc_hd__a21o_4)
                                         _0938_ (net)
                  0.05    0.00   11.97 v _1948_/A3 (sky130_fd_sc_hd__a31o_4)
     7    0.02    0.06    0.27   12.25 v _1948_/X (sky130_fd_sc_hd__a31o_4)
                                         _0940_ (net)
                  0.06    0.00   12.25 v _1968_/A2 (sky130_fd_sc_hd__a21o_2)
     1    0.00    0.03    0.21   12.46 v _1968_/X (sky130_fd_sc_hd__a21o_2)
                                         _0962_ (net)
                  0.03    0.00   12.46 v _1970_/A2 (sky130_fd_sc_hd__a2111o_2)
     1    0.00    0.06    0.46   12.93 v _1970_/X (sky130_fd_sc_hd__a2111o_2)
                                         _0964_ (net)
                  0.06    0.00   12.93 v _1978_/B2 (sky130_fd_sc_hd__a221o_2)
     1    0.00    0.06    0.38   13.31 v _1978_/X (sky130_fd_sc_hd__a221o_2)
                                         _0973_ (net)
                  0.06    0.00   13.31 v _1979_/A3 (sky130_fd_sc_hd__a31oi_2)
     1    0.00    0.14    0.20   13.50 ^ _1979_/Y (sky130_fd_sc_hd__a31oi_2)
                                         _0974_ (net)
                  0.14    0.00   13.50 ^ _1982_/B1 (sky130_fd_sc_hd__a211oi_2)
     3    0.01    0.07    0.07   13.58 v _1982_/Y (sky130_fd_sc_hd__a211oi_2)
                                         _0978_ (net)
                  0.07    0.00   13.58 v _1992_/A1 (sky130_fd_sc_hd__a31o_2)
     1    0.00    0.04    0.21   13.79 v _1992_/X (sky130_fd_sc_hd__a31o_2)
                                         _0989_ (net)
                  0.04    0.00   13.79 v _2000_/A2 (sky130_fd_sc_hd__a21o_2)
     3    0.01    0.05    0.23   14.02 v _2000_/X (sky130_fd_sc_hd__a21o_2)
                                         _0997_ (net)
                  0.05    0.00   14.02 v _2013_/A2 (sky130_fd_sc_hd__a221o_2)
     6    0.03    0.12    0.50   14.51 v _2013_/X (sky130_fd_sc_hd__a221o_2)
                                         _1012_ (net)
                  0.12    0.00   14.51 v _2017_/A (sky130_fd_sc_hd__xnor2_4)
     5    0.02    0.22    0.27   14.79 ^ _2017_/Y (sky130_fd_sc_hd__xnor2_4)
                                         _1016_ (net)
                  0.22    0.00   14.79 ^ _2041_/A2 (sky130_fd_sc_hd__o211ai_2)
     3    0.01    0.09    0.13   14.91 v _2041_/Y (sky130_fd_sc_hd__o211ai_2)
                                         _1042_ (net)
                  0.09    0.00   14.91 v _2043_/A3 (sky130_fd_sc_hd__a31o_2)
     3    0.01    0.05    0.29   15.21 v _2043_/X (sky130_fd_sc_hd__a31o_2)
                                         _1045_ (net)
                  0.05    0.00   15.21 v _2102_/A1 (sky130_fd_sc_hd__o31a_2)
     2    0.01    0.07    0.38   15.59 v _2102_/X (sky130_fd_sc_hd__o31a_2)
                                         _1110_ (net)
                  0.07    0.00   15.59 v _2111_/C (sky130_fd_sc_hd__nand3_2)
     2    0.00    0.05    0.08   15.67 ^ _2111_/Y (sky130_fd_sc_hd__nand3_2)
                                         _1119_ (net)
                  0.05    0.00   15.67 ^ _2135_/B1_N (sky130_fd_sc_hd__a21bo_2)
     2    0.01    0.05    0.25   15.92 v _2135_/X (sky130_fd_sc_hd__a21bo_2)
                                         _1146_ (net)
                  0.05    0.00   15.92 v _2136_/B (sky130_fd_sc_hd__xnor2_2)
     5    0.03    0.36    0.32   16.23 ^ _2136_/Y (sky130_fd_sc_hd__xnor2_2)
                                         _1147_ (net)
                  0.36    0.00   16.23 ^ _2144_/A (sky130_fd_sc_hd__nor2b_4)
     7    0.02    0.09    0.11   16.34 v _2144_/Y (sky130_fd_sc_hd__nor2b_4)
                                         _1156_ (net)
                  0.09    0.00   16.34 v _2145_/C (sky130_fd_sc_hd__and3_4)
     3    0.01    0.04    0.22   16.56 v _2145_/X (sky130_fd_sc_hd__and3_4)
                                         _1157_ (net)
                  0.04    0.00   16.56 v _2187_/A1 (sky130_fd_sc_hd__o31a_4)
     6    0.01    0.07    0.38   16.94 v _2187_/X (sky130_fd_sc_hd__o31a_4)
                                         _1203_ (net)
                  0.07    0.00   16.94 v _2195_/C (sky130_fd_sc_hd__or3_4)
     2    0.01    0.07    0.35   17.30 v _2195_/X (sky130_fd_sc_hd__or3_4)
                                         _1212_ (net)
                  0.07    0.00   17.30 v _2197_/A0 (sky130_fd_sc_hd__mux2_2)
     2    0.01    0.07    0.30   17.60 v _2197_/X (sky130_fd_sc_hd__mux2_2)
                                         _1214_ (net)
                  0.07    0.00   17.60 v _2201_/B1 (sky130_fd_sc_hd__o2bb2a_4)
     2    0.00    0.03    0.23   17.83 v _2201_/X (sky130_fd_sc_hd__o2bb2a_4)
                                         _1218_ (net)
                  0.03    0.00   17.83 v _2226_/A2 (sky130_fd_sc_hd__a32o_2)
     1    0.00    0.05    0.27   18.10 v _2226_/X (sky130_fd_sc_hd__a32o_2)
                                         _1246_ (net)
                  0.05    0.00   18.10 v _2227_/B2 (sky130_fd_sc_hd__a22o_4)
     5    0.01    0.05    0.25   18.35 v _2227_/X (sky130_fd_sc_hd__a22o_4)
                                         _1247_ (net)
                  0.05    0.00   18.35 v _2237_/A2 (sky130_fd_sc_hd__a21oi_2)
     1    0.01    0.15    0.18   18.53 ^ _2237_/Y (sky130_fd_sc_hd__a21oi_2)
                                         _1258_ (net)
                  0.15    0.00   18.53 ^ _2238_/A (sky130_fd_sc_hd__xnor2_2)
     2    0.01    0.18    0.16   18.69 ^ _2238_/Y (sky130_fd_sc_hd__xnor2_2)
                                         _1259_ (net)
                  0.18    0.00   18.69 ^ _2240_/A_N (sky130_fd_sc_hd__and2b_2)
     1    0.00    0.03    0.24   18.93 v _2240_/X (sky130_fd_sc_hd__and2b_2)
                                         _1261_ (net)
                  0.03    0.00   18.93 v _2241_/B1 (sky130_fd_sc_hd__a21o_2)
     2    0.01    0.06    0.22   19.15 v _2241_/X (sky130_fd_sc_hd__a21o_2)
                                         _1262_ (net)
                  0.06    0.00   19.15 v _2243_/A2 (sky130_fd_sc_hd__a21o_4)
     2    0.02    0.05    0.25   19.40 v _2243_/X (sky130_fd_sc_hd__a21o_4)
                                         _1265_ (net)
                  0.05    0.00   19.40 v _2250_/A1 (sky130_fd_sc_hd__a21oi_4)
     3    0.02    0.20    0.20   19.60 ^ _2250_/Y (sky130_fd_sc_hd__a21oi_4)
                                         _1272_ (net)
                  0.20    0.00   19.60 ^ _2331_/A (sky130_fd_sc_hd__xor2_2)
     7    0.03    0.37    0.36   19.96 ^ _2331_/X (sky130_fd_sc_hd__xor2_2)
                                         _1361_ (net)
                  0.37    0.00   19.96 ^ _2332_/B1 (sky130_fd_sc_hd__a21oi_2)
     2    0.01    0.09    0.07   20.03 v _2332_/Y (sky130_fd_sc_hd__a21oi_2)
                                         _0001_ (net)
                  0.09    0.00   20.03 v _2336_/A2 (sky130_fd_sc_hd__a211o_2)
     1    0.00    0.04    0.35   20.38 v _2336_/X (sky130_fd_sc_hd__a211o_2)
                                         _0005_ (net)
                  0.04    0.00   20.38 v _2337_/A2 (sky130_fd_sc_hd__a21o_2)
     4    0.01    0.06    0.25   20.63 v _2337_/X (sky130_fd_sc_hd__a21o_2)
                                         _0006_ (net)
                  0.06    0.00   20.63 v _2340_/A1 (sky130_fd_sc_hd__a21o_2)
     2    0.01    0.06    0.23   20.86 v _2340_/X (sky130_fd_sc_hd__a21o_2)
                                         _0009_ (net)
                  0.06    0.00   20.86 v _2361_/A (sky130_fd_sc_hd__xor2_2)
     2    0.01    0.20    0.23   21.09 ^ _2361_/X (sky130_fd_sc_hd__xor2_2)
                                         _0032_ (net)
                  0.20    0.00   21.09 ^ _2370_/B2 (sky130_fd_sc_hd__a2bb2oi_2)
     2    0.01    0.08    0.11   21.20 v _2370_/Y (sky130_fd_sc_hd__a2bb2oi_2)
                                         _0042_ (net)
                  0.08    0.00   21.20 v _2373_/A (sky130_fd_sc_hd__xnor2_2)
     2    0.01    0.07    0.17   21.37 v _2373_/Y (sky130_fd_sc_hd__xnor2_2)
                                         _0046_ (net)
                  0.07    0.00   21.37 v _2379_/B (sky130_fd_sc_hd__and2_2)
     2    0.00    0.04    0.21   21.58 v _2379_/X (sky130_fd_sc_hd__and2_2)
                                         _0052_ (net)
                  0.04    0.00   21.58 v _2384_/B (sky130_fd_sc_hd__or3_4)
     2    0.00    0.06    0.37   21.95 v _2384_/X (sky130_fd_sc_hd__or3_4)
                                         _0058_ (net)
                  0.06    0.00   21.95 v _2386_/A2 (sky130_fd_sc_hd__a21o_2)
     4    0.02    0.08    0.28   22.24 v _2386_/X (sky130_fd_sc_hd__a21o_2)
                                         _0060_ (net)
                  0.08    0.00   22.24 v _2400_/A (sky130_fd_sc_hd__xnor2_2)
     3    0.01    0.06    0.16   22.40 v _2400_/Y (sky130_fd_sc_hd__xnor2_2)
                                         _0075_ (net)
                  0.06    0.00   22.40 v _2405_/A0 (sky130_fd_sc_hd__mux2_2)
     3    0.00    0.06    0.28   22.68 v _2405_/X (sky130_fd_sc_hd__mux2_2)
                                         _0081_ (net)
                  0.06    0.00   22.68 v _2406_/B (sky130_fd_sc_hd__and2_2)
     4    0.01    0.06    0.23   22.91 v _2406_/X (sky130_fd_sc_hd__and2_2)
                                         _0082_ (net)
                  0.06    0.00   22.91 v _2438_/A1 (sky130_fd_sc_hd__a211o_2)
     5    0.03    0.11    0.39   23.30 v _2438_/X (sky130_fd_sc_hd__a211o_2)
                                         _0117_ (net)
                  0.11    0.00   23.30 v _2441_/A (sky130_fd_sc_hd__xnor2_4)
     5    0.02    0.18    0.24   23.53 ^ _2441_/Y (sky130_fd_sc_hd__xnor2_4)
                                         _0120_ (net)
                  0.18    0.00   23.53 ^ _2442_/B (sky130_fd_sc_hd__xnor2_2)
     2    0.00    0.11    0.14   23.67 ^ _2442_/Y (sky130_fd_sc_hd__xnor2_2)
                                         _0122_ (net)
                  0.11    0.00   23.67 ^ _2456_/B (sky130_fd_sc_hd__and3_2)
     1    0.00    0.04    0.18   23.85 ^ _2456_/X (sky130_fd_sc_hd__and3_2)
                                         _0137_ (net)
                  0.04    0.00   23.85 ^ _2457_/C_N (sky130_fd_sc_hd__or3b_2)
     1    0.00    0.07    0.45   24.29 v _2457_/X (sky130_fd_sc_hd__or3b_2)
                                         _0138_ (net)
                  0.07    0.00   24.29 v _2458_/A (sky130_fd_sc_hd__buf_4)
     6    0.02    0.04    0.17   24.47 v _2458_/X (sky130_fd_sc_hd__buf_4)
                                         _0139_ (net)
                  0.04    0.00   24.47 v _2468_/A2 (sky130_fd_sc_hd__a221o_2)
     2    0.01    0.06    0.41   24.88 v _2468_/X (sky130_fd_sc_hd__a221o_2)
                                         _0150_ (net)
                  0.06    0.00   24.88 v _2483_/D_N (sky130_fd_sc_hd__or4b_4)
     2    0.00    0.03    0.21   25.09 ^ _2483_/X (sky130_fd_sc_hd__or4b_4)
                                         _0167_ (net)
                  0.03    0.00   25.09 ^ _2518_/A2 (sky130_fd_sc_hd__a21o_2)
     2    0.01    0.08    0.16   25.24 ^ _2518_/X (sky130_fd_sc_hd__a21o_2)
                                         _0205_ (net)
                  0.08    0.00   25.24 ^ _2519_/A2 (sky130_fd_sc_hd__a21o_4)
     2    0.03    0.09    0.17   25.42 ^ _2519_/X (sky130_fd_sc_hd__a21o_4)
                                         _0206_ (net)
                  0.09    0.00   25.42 ^ _2529_/A1 (sky130_fd_sc_hd__a21oi_4)
     2    0.01    0.07    0.07   25.48 v _2529_/Y (sky130_fd_sc_hd__a21oi_4)
                                         _0217_ (net)
                  0.07    0.00   25.48 v _2543_/A (sky130_fd_sc_hd__or3_4)
     5    0.02    0.09    0.45   25.93 v _2543_/X (sky130_fd_sc_hd__or3_4)
                                         _0233_ (net)
                  0.09    0.00   25.93 v _2595_/B1 (sky130_fd_sc_hd__a21oi_2)
     9    0.03    0.39    0.34   26.27 ^ _2595_/Y (sky130_fd_sc_hd__a21oi_2)
                                         _0290_ (net)
                  0.39    0.00   26.27 ^ _2599_/A1 (sky130_fd_sc_hd__a22oi_2)
    10    0.03    0.18    0.24   26.52 v _2599_/Y (sky130_fd_sc_hd__a22oi_2)
                                         _0294_ (net)
                  0.18    0.00   26.52 v _2621_/A2 (sky130_fd_sc_hd__o311a_2)
     1    0.00    0.05    0.43   26.94 v _2621_/X (sky130_fd_sc_hd__o311a_2)
                                         _0317_ (net)
                  0.05    0.00   26.94 v _2622_/B1 (sky130_fd_sc_hd__a31o_2)
     1    0.00    0.04    0.22   27.16 v _2622_/X (sky130_fd_sc_hd__a31o_2)
                                         _0319_ (net)
                  0.04    0.00   27.16 v _2633_/A1 (sky130_fd_sc_hd__a21o_2)
     4    0.01    0.06    0.22   27.38 v _2633_/X (sky130_fd_sc_hd__a21o_2)
                                         _0331_ (net)
                  0.06    0.00   27.38 v _2634_/A3 (sky130_fd_sc_hd__a31o_4)
     3    0.01    0.05    0.27   27.65 v _2634_/X (sky130_fd_sc_hd__a31o_4)
                                         _0332_ (net)
                  0.05    0.00   27.65 v _2647_/A (sky130_fd_sc_hd__xor2_2)
     2    0.01    0.17    0.20   27.85 ^ _2647_/X (sky130_fd_sc_hd__xor2_2)
                                         _0346_ (net)
                  0.17    0.00   27.85 ^ _2649_/A_N (sky130_fd_sc_hd__and2b_2)
     1    0.00    0.03    0.24   28.09 v _2649_/X (sky130_fd_sc_hd__and2b_2)
                                         _0348_ (net)
                  0.03    0.00   28.09 v _2650_/B1 (sky130_fd_sc_hd__a21o_2)
     2    0.01    0.06    0.22   28.32 v _2650_/X (sky130_fd_sc_hd__a21o_2)
                                         _0349_ (net)
                  0.06    0.00   28.32 v _2652_/A2 (sky130_fd_sc_hd__a21o_4)
     2    0.02    0.05    0.25   28.56 v _2652_/X (sky130_fd_sc_hd__a21o_4)
                                         _0352_ (net)
                  0.05    0.00   28.56 v _2662_/A (sky130_fd_sc_hd__xnor2_2)
     4    0.01    0.15    0.18   28.74 ^ _2662_/Y (sky130_fd_sc_hd__xnor2_2)
                                         _0363_ (net)
                  0.15    0.00   28.74 ^ _2672_/A_N (sky130_fd_sc_hd__and3b_2)
     2    0.01    0.05    0.25   28.99 v _2672_/X (sky130_fd_sc_hd__and3b_2)
                                         _0374_ (net)
                  0.05    0.00   28.99 v _2679_/C (sky130_fd_sc_hd__or4_4)
     1    0.00    0.08    0.49   29.47 v _2679_/X (sky130_fd_sc_hd__or4_4)
                                         _0381_ (net)
                  0.08    0.00   29.47 v _2686_/A1 (sky130_fd_sc_hd__a31o_2)
     3    0.01    0.05    0.23   29.71 v _2686_/X (sky130_fd_sc_hd__a31o_2)
                                         _0389_ (net)
                  0.05    0.00   29.71 v _2713_/B1_N (sky130_fd_sc_hd__a21bo_4)
     1    0.01    0.03    0.18   29.89 ^ _2713_/X (sky130_fd_sc_hd__a21bo_4)
                                         _0419_ (net)
                  0.03    0.00   29.89 ^ _2714_/A2 (sky130_fd_sc_hd__a21boi_2)
     1    0.00    0.04    0.05   29.93 v _2714_/Y (sky130_fd_sc_hd__a21boi_2)
                                         _0420_ (net)
                  0.04    0.00   29.93 v _2724_/A2 (sky130_fd_sc_hd__o311a_4)
     4    0.03    0.09    0.41   30.35 v _2724_/X (sky130_fd_sc_hd__o311a_4)
                                         _0431_ (net)
                  0.09    0.00   30.35 v _2725_/A3 (sky130_fd_sc_hd__o31a_4)
     1    0.03    0.09    0.36   30.71 v _2725_/X (sky130_fd_sc_hd__o31a_4)
                                         ma_start[0] (net)
                  0.09    0.00   30.71 v ma_start[0] (out)
                                 30.71   data arrival time

                  0.15   10.00   10.00   clock CLK (rise edge)
                          0.00   10.00   clock network delay (ideal)
                         -0.25    9.75   clock uncertainty
                          0.00    9.75   clock reconvergence pessimism
                         -2.00    7.75   output external delay
                                  7.75   data required time
-----------------------------------------------------------------------------
                                  7.75   data required time
                                -30.71   data arrival time
-----------------------------------------------------------------------------
                                -22.96   slack (VIOLATED)




===========================================================================
 report_check_types -max_slew -max_cap -max_fanout -violators
============================================================================
======================= Typical Corner ===================================


max slew violations count Typical: 0
max fanout violations count Typical: 0
max cap violations count Typical: 0

===========================================================================
report_parasitic_annotation -report_unannotated
============================================================================
Found 1409 unannotated drivers.
 CLK
 EN_ma_start
 RST_N
 ma_start_ac_func[0]
 ma_start_ac_func[1]
 ma_start_ac_func[2]
 ma_start_rmode[0]
 ma_start_rmode[1]
 ma_start_rmode[2]
 ma_start_x[0]
 ma_start_x[10]
 ma_start_x[11]
 ma_start_x[12]
 ma_start_x[13]
 ma_start_x[1]
 ma_start_x[2]
 ma_start_x[3]
 ma_start_x[4]
 ma_start_x[5]
 ma_start_x[6]
 ma_start_x[7]
 ma_start_x[8]
 ma_start_x[9]
 _1362_/X
 _1363_/Y
 _1364_/Y
 _1365_/Y
 _1366_/Y
 _1367_/X
 _1368_/X
 _1369_/X
 _1370_/X
 _1371_/X
 _1372_/X
 _1373_/Y
 _1374_/Y
 _1375_/Y
 _1376_/Y
 _1377_/X
 _1378_/Y
 _1379_/Y
 _1380_/Y
 _1381_/Y
 _1382_/X
 _1383_/X
 _1384_/X
 _1385_/Y
 _1386_/X
 _1387_/X
 _1388_/X
 _1389_/X
 _1390_/Y
 _1391_/Y
 _1392_/Y
 _1393_/Y
 _1394_/X
 _1395_/X
 _1396_/X
 _1397_/X
 _1398_/Y
 _1399_/Y
 _1400_/X
 _1401_/X
 _1402_/Y
 _1403_/X
 _1404_/X
 _1405_/X
 _1406_/X
 _1407_/Y
 _1408_/X
 _1409_/Y
 _1410_/Y
 _1411_/Y
 _1412_/Y
 _1413_/X
 _1414_/X
 _1415_/X
 _1416_/Y
 _1417_/Y
 _1418_/Y
 _1419_/X
 _1420_/Y
 _1421_/Y
 _1422_/X
 _1423_/X
 _1424_/Y
 _1425_/X
 _1426_/X
 _1427_/X
 _1428_/Y
 _1429_/Y
 _1430_/X
 _1431_/Y
 _1432_/X
 _1433_/Y
 _1434_/Y
 _1435_/X
 _1436_/Y
 _1437_/X
 _1438_/Y
 _1439_/X
 _1440_/X
 _1441_/X
 _1442_/X
 _1443_/Y
 _1444_/X
 _1445_/Y
 _1446_/Y
 _1447_/Y
 _1448_/X
 _1449_/Y
 _1450_/Y
 _1451_/X
 _1452_/X
 _1453_/Y
 _1454_/Y
 _1455_/X
 _1456_/Y
 _1457_/X
 _1458_/X
 _1459_/X
 _1460_/Y
 _1461_/Y
 _1462_/Y
 _1463_/Y
 _1464_/X
 _1465_/X
 _1466_/X
 _1467_/X
 _1468_/Y
 _1469_/Y
 _1470_/Y
 _1471_/Y
 _1472_/X
 _1473_/Y
 _1474_/X
 _1475_/X
 _1476_/Y
 _1477_/X
 _1478_/Y
 _1479_/X
 _1480_/Y
 _1481_/Y
 _1482_/X
 _1483_/Y
 _1484_/Y
 _1485_/X
 _1486_/X
 _1487_/Y
 _1488_/X
 _1489_/Y
 _1490_/Y
 _1491_/Y
 _1492_/Y
 _1493_/Y
 _1494_/Y
 _1495_/Y
 _1496_/X
 _1497_/X
 _1498_/X
 _1499_/X
 _1500_/X
 _1501_/Y
 _1502_/X
 _1503_/X
 _1504_/X
 _1505_/X
 _1506_/Y
 _1507_/Y
 _1508_/Y
 _1509_/Y
 _1510_/X
 _1511_/X
 _1512_/X
 _1513_/X
 _1514_/X
 _1515_/X
 _1516_/X
 _1517_/X
 _1518_/X
 _1519_/Y
 _1520_/X
 _1521_/Y
 _1522_/X
 _1523_/X
 _1524_/Y
 _1525_/X
 _1526_/Y
 _1527_/X
 _1528_/X
 _1529_/X
 _1530_/X
 _1531_/X
 _1532_/Y
 _1533_/Y
 _1534_/X
 _1535_/X
 _1536_/Y
 _1537_/X
 _1538_/Y
 _1539_/Y
 _1540_/X
 _1541_/Y
 _1542_/Y
 _1543_/Y
 _1544_/X
 _1545_/Y
 _1546_/X
 _1547_/Y
 _1548_/Y
 _1549_/Y
 _1550_/Y
 _1551_/Y
 _1552_/X
 _1553_/X
 _1554_/X
 _1555_/Y
 _1556_/Y
 _1557_/X
 _1558_/X
 _1559_/Y
 _1560_/Y
 _1561_/X
 _1562_/Y
 _1563_/Y
 _1564_/X
 _1565_/Y
 _1566_/Y
 _1567_/X
 _1568_/Y
 _1569_/X
 _1570_/X
 _1571_/X
 _1572_/Y
 _1573_/X
 _1574_/X
 _1575_/X
 _1576_/Y
 _1577_/X
 _1578_/X
 _1579_/X
 _1580_/X
 _1581_/X
 _1582_/Y
 _1583_/Y
 _1584_/Y
 _1585_/Y
 _1586_/X
 _1587_/Y
 _1588_/Y
 _1589_/Y
 _1590_/Y
 _1591_/X
 _1592_/X
 _1593_/X
 _1594_/X
 _1595_/Y
 _1596_/X
 _1597_/Y
 _1598_/X
 _1599_/Y
 _1600_/X
 _1601_/X
 _1602_/Y
 _1603_/X
 _1604_/Y
 _1605_/Y
 _1606_/Y
 _1607_/X
 _1608_/Y
 _1609_/X
 _1610_/X
 _1611_/X
 _1612_/Y
 _1613_/X
 _1614_/Y
 _1615_/Y
 _1616_/X
 _1617_/Y
 _1618_/Y
 _1619_/X
 _1620_/X
 _1621_/X
 _1622_/Y
 _1623_/X
 _1624_/X
 _1625_/X
 _1626_/X
 _1627_/Y
 _1628_/X
 _1629_/X
 _1630_/X
 _1631_/X
 _1632_/Y
 _1633_/X
 _1634_/X
 _1635_/X
 _1636_/X
 _1637_/X
 _1638_/Y
 _1639_/X
 _1640_/X
 _1641_/X
 _1642_/X
 _1643_/Y
 _1644_/Y
 _1645_/X
 _1646_/Y
 _1647_/X
 _1648_/X
 _1649_/X
 _1650_/Y
 _1651_/X
 _1652_/Y
 _1653_/Y
 _1654_/Y
 _1655_/X
 _1656_/X
 _1657_/X
 _1658_/Y
 _1659_/X
 _1660_/X
 _1661_/X
 _1662_/Y
 _1663_/Y
 _1664_/X
 _1665_/X
 _1666_/Y
 _1667_/Y
 _1668_/X
 _1669_/X
 _1670_/X
 _1671_/X
 _1672_/X
 _1673_/X
 _1674_/Y
 _1675_/X
 _1676_/X
 _1677_/X
 _1678_/X
 _1679_/X
 _1680_/X
 _1681_/Y
 _1682_/X
 _1683_/X
 _1684_/X
 _1685_/Y
 _1686_/Y
 _1687_/Y
 _1688_/X
 _1689_/X
 _1690_/X
 _1691_/Y
 _1692_/Y
 _1693_/X
 _1694_/X
 _1695_/X
 _1696_/X
 _1697_/X
 _1698_/X
 _1699_/X
 _1700_/X
 _1701_/X
 _1702_/X
 _1703_/X
 _1704_/X
 _1705_/X
 _1706_/Y
 _1707_/Y
 _1708_/Y
 _1709_/Y
 _1710_/Y
 _1711_/Y
 _1712_/Y
 _1713_/Y
 _1714_/Y
 _1715_/Y
 _1716_/Y
 _1717_/X
 _1718_/X
 _1719_/X
 _1720_/Y
 _1721_/X
 _1722_/X
 _1723_/Y
 _1724_/X
 _1725_/Y
 _1726_/Y
 _1727_/Y
 _1728_/Y
 _1729_/Y
 _1730_/Y
 _1731_/Y
 _1732_/X
 _1733_/Y
 _1734_/X
 _1735_/Y
 _1736_/Y
 _1737_/X
 _1738_/Y
 _1739_/Y
 _1740_/Y
 _1741_/Y
 _1742_/X
 _1743_/Y
 _1744_/Y
 _1745_/X
 _1746_/X
 _1747_/Y
 _1748_/X
 _1749_/X
 _1750_/X
 _1751_/X
 _1752_/X
 _1753_/X
 _1754_/Y
 _1755_/X
 _1756_/Y
 _1757_/Y
 _1758_/Y
 _1759_/X
 _1760_/X
 _1761_/X
 _1762_/X
 _1763_/X
 _1764_/Y
 _1765_/Y
 _1766_/Y
 _1767_/X
 _1768_/Y
 _1769_/X
 _1770_/X
 _1771_/X
 _1772_/Y
 _1773_/X
 _1774_/Y
 _1775_/Y
 _1776_/Y
 _1777_/Y
 _1778_/X
 _1779_/X
 _1780_/X
 _1781_/Y
 _1782_/X
 _1783_/X
 _1784_/Y
 _1785_/Y
 _1786_/X
 _1787_/X
 _1788_/Y
 _1789_/Y
 _1790_/Y
 _1791_/X
 _1792_/X
 _1793_/X
 _1794_/X
 _1795_/Y
 _1796_/Y
 _1797_/Y
 _1798_/X
 _1799_/X
 _1800_/Y
 _1801_/Y
 _1802_/X
 _1803_/X
 _1804_/Y
 _1805_/X
 _1806_/X
 _1807_/Y
 _1808_/X
 _1809_/X
 _1810_/X
 _1811_/Y
 _1812_/Y
 _1813_/X
 _1814_/Y
 _1815_/Y
 _1816_/Y
 _1817_/X
 _1818_/X
 _1819_/X
 _1820_/X
 _1821_/Y
 _1822_/X
 _1823_/Y
 _1824_/X
 _1825_/Y
 _1826_/X
 _1827_/Y
 _1828_/X
 _1829_/X
 _1830_/X
 _1831_/X
 _1832_/Y
 _1833_/X
 _1834_/X
 _1835_/X
 _1836_/X
 _1837_/Y
 _1838_/X
 _1839_/Y
 _1840_/Y
 _1841_/X
 _1842_/Y
 _1843_/X
 _1844_/Y
 _1845_/Y
 _1846_/Y
 _1847_/X
 _1848_/X
 _1849_/X
 _1850_/X
 _1851_/Y
 _1852_/X
 _1853_/X
 _1854_/Y
 _1855_/Y
 _1856_/X
 _1857_/X
 _1858_/Y
 _1859_/X
 _1860_/X
 _1861_/Y
 _1862_/X
 _1863_/Y
 _1864_/Y
 _1865_/X
 _1866_/X
 _1867_/X
 _1868_/X
 _1869_/X
 _1870_/X
 _1871_/Y
 _1872_/Y
 _1873_/X
 _1874_/X
 _1875_/X
 _1876_/X
 _1877_/Y
 _1878_/X
 _1879_/X
 _1880_/X
 _1881_/Y
 _1882_/Y
 _1883_/Y
 _1884_/X
 _1885_/Y
 _1886_/X
 _1887_/Y
 _1888_/Y
 _1889_/Y
 _1890_/Y
 _1891_/X
 _1892_/X
 _1893_/Y
 _1894_/X
 _1895_/X
 _1896_/X
 _1897_/X
 _1898_/Y
 _1899_/Y
 _1900_/X
 _1901_/Y
 _1902_/X
 _1903_/Y
 _1904_/X
 _1905_/X
 _1906_/Y
 _1907_/Y
 _1908_/X
 _1909_/X
 _1910_/X
 _1911_/Y
 _1912_/Y
 _1913_/X
 _1914_/Y
 _1915_/X
 _1916_/X
 _1917_/X
 _1918_/X
 _1919_/X
 _1920_/Y
 _1921_/X
 _1922_/Y
 _1923_/X
 _1924_/X
 _1925_/Y
 _1926_/Y
 _1927_/Y
 _1928_/X
 _1929_/Y
 _1930_/X
 _1931_/X
 _1932_/Y
 _1933_/X
 _1934_/X
 _1935_/X
 _1936_/Y
 _1937_/Y
 _1938_/Y
 _1939_/Y
 _1940_/X
 _1941_/Y
 _1942_/Y
 _1943_/Y
 _1944_/Y
 _1945_/Y
 _1946_/X
 _1947_/Y
 _1948_/X
 _1949_/X
 _1950_/X
 _1951_/X
 _1952_/Y
 _1953_/X
 _1954_/Y
 _1955_/X
 _1956_/Y
 _1957_/Y
 _1958_/Y
 _1959_/X
 _1960_/X
 _1961_/X
 _1962_/X
 _1963_/X
 _1964_/X
 _1965_/Y
 _1966_/Y
 _1967_/Y
 _1968_/X
 _1969_/X
 _1970_/X
 _1971_/X
 _1972_/Y
 _1973_/Y
 _1974_/Y
 _1975_/Y
 _1976_/Y
 _1977_/Y
 _1978_/X
 _1979_/Y
 _1980_/Y
 _1981_/X
 _1982_/Y
 _1983_/Y
 _1984_/Y
 _1985_/X
 _1986_/X
 _1987_/Y
 _1988_/Y
 _1989_/X
 _1990_/X
 _1991_/X
 _1992_/X
 _1993_/X
 _1994_/X
 _1995_/X
 _1996_/X
 _1997_/X
 _1998_/X
 _1999_/X
 _2000_/X
 _2001_/Y
 _2002_/Y
 _2003_/X
 _2004_/X
 _2005_/X
 _2006_/Y
 _2007_/Y
 _2008_/X
 _2009_/X
 _2010_/X
 _2011_/Y
 _2012_/X
 _2013_/X
 _2014_/X
 _2015_/X
 _2016_/X
 _2017_/Y
 _2018_/Y
 _2019_/Y
 _2020_/Y
 _2021_/X
 _2022_/Y
 _2023_/X
 _2024_/X
 _2025_/Y
 _2026_/X
 _2027_/X
 _2028_/X
 _2029_/Y
 _2030_/X
 _2031_/X
 _2032_/X
 _2033_/X
 _2034_/X
 _2035_/X
 _2036_/X
 _2037_/X
 _2038_/Y
 _2039_/X
 _2040_/X
 _2041_/Y
 _2042_/Y
 _2043_/X
 _2044_/Y
 _2045_/X
 _2046_/Y
 _2047_/Y
 _2048_/X
 _2049_/Y
 _2050_/Y
 _2051_/Y
 _2052_/X
 _2053_/X
 _2054_/X
 _2055_/Y
 _2056_/Y
 _2057_/Y
 _2058_/X
 _2059_/Y
 _2060_/Y
 _2061_/Y
 _2062_/X
 _2063_/X
 _2064_/X
 _2065_/X
 _2066_/Y
 _2067_/Y
 _2068_/X
 _2069_/Y
 _2070_/X
 _2071_/X
 _2072_/X
 _2073_/X
 _2074_/Y
 _2075_/Y
 _2076_/Y
 _2077_/Y
 _2078_/Y
 _2079_/Y
 _2080_/X
 _2081_/X
 _2082_/X
 _2083_/Y
 _2084_/X
 _2085_/Y
 _2086_/X
 _2087_/X
 _2088_/Y
 _2089_/Y
 _2090_/X
 _2091_/Y
 _2092_/Y
 _2093_/Y
 _2094_/X
 _2095_/Y
 _2096_/X
 _2097_/X
 _2098_/Y
 _2099_/Y
 _2100_/Y
 _2101_/Y
 _2102_/X
 _2103_/Y
 _2104_/Y
 _2105_/Y
 _2106_/X
 _2107_/Y
 _2108_/X
 _2109_/Y
 _2110_/Y
 _2111_/Y
 _2112_/X
 _2113_/X
 _2114_/Y
 _2115_/X
 _2116_/X
 _2117_/X
 _2118_/X
 _2119_/Y
 _2120_/X
 _2121_/X
 _2122_/X
 _2123_/X
 _2124_/Y
 _2125_/Y
 _2126_/X
 _2127_/Y
 _2128_/Y
 _2129_/X
 _2130_/X
 _2131_/Y
 _2132_/Y
 _2133_/Y
 _2134_/X
 _2135_/X
 _2136_/Y
 _2137_/Y
 _2138_/Y
 _2139_/X
 _2140_/Y
 _2141_/Y
 _2142_/X
 _2143_/X
 _2144_/Y
 _2145_/X
 _2146_/Y
 _2147_/Y
 _2148_/X
 _2149_/X
 _2150_/Y
 _2151_/X
 _2152_/X
 _2153_/Y
 _2154_/X
 _2155_/Y
 _2156_/X
 _2157_/X
 _2158_/Y
 _2159_/Y
 _2160_/Y
 _2161_/X
 _2162_/X
 _2163_/X
 _2164_/X
 _2165_/Y
 _2166_/Y
 _2167_/Y
 _2168_/X
 _2169_/X
 _2170_/X
 _2171_/Y
 _2172_/Y
 _2173_/Y
 _2174_/X
 _2175_/X
 _2176_/Y
 _2177_/Y
 _2178_/X
 _2179_/Y
 _2180_/Y
 _2181_/Y
 _2182_/X
 _2183_/X
 _2184_/Y
 _2185_/Y
 _2186_/X
 _2187_/X
 _2188_/X
 _2189_/X
 _2190_/Y
 _2191_/X
 _2192_/X
 _2193_/Y
 _2194_/X
 _2195_/X
 _2196_/X
 _2197_/X
 _2198_/Y
 _2199_/X
 _2200_/X
 _2201_/X
 _2202_/X
 _2203_/Y
 _2204_/X
 _2205_/X
 _2206_/Y
 _2207_/Y
 _2208_/Y
 _2209_/X
 _2210_/Y
 _2211_/X
 _2212_/X
 _2213_/Y
 _2214_/Y
 _2215_/X
 _2216_/X
 _2217_/X
 _2218_/X
 _2219_/X
 _2220_/Y
 _2221_/Y
 _2222_/Y
 _2223_/X
 _2224_/X
 _2225_/X
 _2226_/X
 _2227_/X
 _2228_/Y
 _2229_/X
 _2230_/X
 _2231_/Y
 _2232_/X
 _2233_/Y
 _2234_/X
 _2235_/X
 _2236_/X
 _2237_/Y
 _2238_/Y
 _2239_/Y
 _2240_/X
 _2241_/X
 _2242_/X
 _2243_/X
 _2244_/X
 _2245_/X
 _2246_/X
 _2247_/Y
 _2248_/Y
 _2249_/X
 _2250_/Y
 _2251_/X
 _2252_/X
 _2253_/Y
 _2254_/X
 _2255_/X
 _2256_/Y
 _2257_/Y
 _2258_/Y
 _2259_/X
 _2260_/Y
 _2261_/X
 _2262_/X
 _2263_/Y
 _2264_/Y
 _2265_/X
 _2266_/X
 _2267_/X
 _2268_/Y
 _2269_/Y
 _2270_/Y
 _2271_/Y
 _2272_/X
 _2273_/X
 _2274_/X
 _2275_/X
 _2276_/X
 _2277_/X
 _2278_/Y
 _2279_/X
 _2280_/X
 _2281_/Y
 _2282_/X
 _2283_/X
 _2284_/X
 _2285_/X
 _2286_/Y
 _2287_/Y
 _2288_/Y
 _2289_/Y
 _2290_/Y
 _2291_/X
 _2292_/Y
 _2293_/X
 _2294_/Y
 _2295_/Y
 _2296_/X
 _2297_/Y
 _2298_/X
 _2299_/X
 _2300_/Y
 _2301_/Y
 _2302_/X
 _2303_/X
 _2304_/Y
 _2305_/Y
 _2306_/Y
 _2307_/Y
 _2308_/X
 _2309_/Y
 _2310_/X
 _2311_/X
 _2312_/X
 _2313_/Y
 _2314_/X
 _2315_/X
 _2316_/Y
 _2317_/X
 _2318_/Y
 _2319_/Y
 _2320_/Y
 _2321_/Y
 _2322_/X
 _2323_/X
 _2324_/X
 _2325_/X
 _2326_/Y
 _2327_/Y
 _2328_/Y
 _2329_/Y
 _2330_/X
 _2331_/X
 _2332_/Y
 _2333_/Y
 _2334_/X
 _2335_/Y
 _2336_/X
 _2337_/X
 _2338_/Y
 _2339_/Y
 _2340_/X
 _2341_/Y
 _2342_/Y
 _2343_/Y
 _2344_/X
 _2345_/Y
 _2346_/Y
 _2347_/Y
 _2348_/X
 _2349_/X
 _2350_/X
 _2351_/X
 _2352_/Y
 _2353_/X
 _2354_/Y
 _2355_/Y
 _2356_/Y
 _2357_/Y
 _2358_/Y
 _2359_/Y
 _2360_/Y
 _2361_/X
 _2362_/X
 _2363_/Y
 _2364_/Y
 _2365_/X
 _2366_/X
 _2367_/X
 _2368_/Y
 _2369_/Y
 _2370_/Y
 _2371_/Y
 _2372_/Y
 _2373_/Y
 _2374_/Y
 _2375_/X
 _2376_/X
 _2377_/X
 _2378_/X
 _2379_/X
 _2380_/X
 _2381_/Y
 _2382_/X
 _2383_/Y
 _2384_/X
 _2385_/X
 _2386_/X
 _2387_/Y
 _2388_/Y
 _2389_/Y
 _2390_/Y
 _2391_/Y
 _2392_/X
 _2393_/Y
 _2394_/X
 _2395_/X
 _2396_/Y
 _2397_/X
 _2398_/Y
 _2399_/Y
 _2400_/Y
 _2401_/X
 _2402_/Y
 _2403_/Y
 _2404_/Y
 _2405_/X
 _2406_/X
 _2407_/Y
 _2408_/Y
 _2409_/Y
 _2410_/X
 _2411_/X
 _2412_/X
 _2413_/Y
 _2414_/Y
 _2415_/Y
 _2416_/X
 _2417_/X
 _2418_/X
 _2419_/X
 _2420_/X
 _2421_/X
 _2422_/Y
 _2423_/Y
 _2424_/X
 _2425_/X
 _2426_/Y
 _2427_/X
 _2428_/X
 _2429_/X
 _2430_/Y
 _2431_/X
 _2432_/X
 _2433_/X
 _2434_/X
 _2435_/X
 _2436_/Y
 _2437_/X
 _2438_/X
 _2439_/X
 _2440_/X
 _2441_/Y
 _2442_/Y
 _2443_/Y
 _2444_/Y
 _2445_/Y
 _2446_/Y
 _2447_/X
 _2448_/X
 _2449_/Y
 _2450_/X
 _2451_/X
 _2452_/X
 _2453_/X
 _2454_/Y
 _2455_/X
 _2456_/X
 _2457_/X
 _2458_/X
 _2459_/Y
 _2460_/Y
 _2461_/Y
 _2462_/Y
 _2463_/Y
 _2464_/Y
 _2465_/X
 _2466_/X
 _2467_/X
 _2468_/X
 _2469_/X
 _2470_/X
 _2471_/Y
 _2472_/Y
 _2473_/X
 _2474_/Y
 _2475_/Y
 _2476_/X
 _2477_/Y
 _2478_/Y
 _2479_/X
 _2480_/X
 _2481_/Y
 _2482_/Y
 _2483_/X
 _2484_/Y
 _2485_/Y
 _2486_/X
 _2487_/Y
 _2488_/X
 _2489_/Y
 _2490_/Y
 _2491_/X
 _2492_/X
 _2493_/X
 _2494_/Y
 _2495_/X
 _2496_/X
 _2497_/X
 _2498_/X
 _2499_/X
 _2500_/Y
 _2501_/Y
 _2502_/X
 _2503_/X
 _2504_/X
 _2505_/X
 _2506_/Y
 _2507_/X
 _2508_/Y
 _2509_/Y
 _2510_/X
 _2511_/Y
 _2512_/Y
 _2513_/X
 _2514_/X
 _2515_/Y
 _2516_/X
 _2517_/X
 _2518_/X
 _2519_/X
 _2520_/Y
 _2521_/Y
 _2522_/X
 _2523_/Y
 _2524_/Y
 _2525_/X
 _2526_/X
 _2527_/Y
 _2528_/Y
 _2529_/Y
 _2530_/Y
 _2531_/X
 _2532_/X
 _2533_/X
 _2534_/Y
 _2535_/Y
 _2536_/X
 _2537_/Y
 _2538_/X
 _2539_/X
 _2540_/X
 _2541_/X
 _2542_/Y
 _2543_/X
 _2544_/X
 _2545_/X
 _2546_/Y
 _2547_/X
 _2548_/Y
 _2549_/X
 _2550_/Y
 _2551_/Y
 _2552_/X
 _2553_/X
 _2554_/Y
 _2555_/X
 _2556_/X
 _2557_/Y
 _2558_/X
 _2559_/X
 _2560_/Y
 _2561_/X
 _2562_/X
 _2563_/Y
 _2564_/X
 _2565_/Y
 _2566_/X
 _2567_/X
 _2568_/Y
 _2569_/X
 _2570_/X
 _2571_/X
 _2572_/Y
 _2573_/X
 _2574_/Y
 _2575_/X
 _2576_/X
 _2577_/Y
 _2578_/Y
 _2579_/Y
 _2580_/Y
 _2581_/Y
 _2582_/Y
 _2583_/X
 _2584_/X
 _2585_/Y
 _2586_/X
 _2587_/X
 _2588_/X
 _2589_/X
 _2590_/Y
 _2591_/X
 _2592_/Y
 _2593_/Y
 _2594_/Y
 _2595_/Y
 _2596_/X
 _2597_/Y
 _2598_/Y
 _2599_/Y
 _2600_/Y
 _2601_/X
 _2602_/X
 _2603_/Y
 _2604_/Y
 _2605_/Y
 _2606_/X
 _2607_/X
 _2608_/X
 _2609_/X
 _2610_/X
 _2611_/X
 _2612_/X
 _2613_/X
 _2614_/X
 _2615_/X
 _2616_/X
 _2617_/X
 _2618_/Y
 _2619_/X
 _2620_/Y
 _2621_/X
 _2622_/X
 _2623_/X
 _2624_/X
 _2625_/Y
 _2626_/Y
 _2627_/X
 _2628_/Y
 _2629_/X
 _2630_/X
 _2631_/X
 _2632_/X
 _2633_/X
 _2634_/X
 _2635_/Y
 _2636_/X
 _2637_/X
 _2638_/X
 _2639_/X
 _2640_/X
 _2641_/X
 _2642_/X
 _2643_/X
 _2644_/Y
 _2645_/X
 _2646_/Y
 _2647_/X
 _2648_/Y
 _2649_/X
 _2650_/X
 _2651_/Y
 _2652_/X
 _2653_/Y
 _2654_/Y
 _2655_/X
 _2656_/X
 _2657_/Y
 _2658_/Y
 _2659_/Y
 _2660_/X
 _2661_/Y
 _2662_/Y
 _2663_/Y
 _2664_/Y
 _2665_/Y
 _2666_/X
 _2667_/X
 _2668_/X
 _2669_/Y
 _2670_/Y
 _2671_/X
 _2672_/X
 _2673_/Y
 _2674_/X
 _2675_/Y
 _2676_/Y
 _2677_/X
 _2678_/Y
 _2679_/X
 _2680_/Y
 _2681_/Y
 _2682_/Y
 _2683_/Y
 _2684_/Y
 _2685_/Y
 _2686_/X
 _2687_/Y
 _2688_/X
 _2689_/X
 _2690_/X
 _2691_/Y
 _2692_/X
 _2693_/Y
 _2694_/X
 _2695_/Y
 _2696_/Y
 _2697_/Y
 _2698_/X
 _2699_/Y
 _2700_/Y
 _2701_/X
 _2702_/X
 _2703_/X
 _2704_/Y
 _2705_/Y
 _2706_/X
 _2707_/X
 _2708_/X
 _2709_/X
 _2710_/X
 _2711_/X
 _2712_/X
 _2713_/X
 _2714_/Y
 _2715_/X
 _2716_/Y
 _2717_/Y
 _2718_/X
 _2719_/X
 _2720_/Y
 _2721_/Y
 _2722_/X
 _2723_/X
 _2724_/X
 _2725_/X
 _2726_/Y
 _2727_/Y
 _2728_/Y
 _2729_/Y
 _2730_/HI
 _2730_/LO
 _2731_/HI
 _2731_/LO
 _2732_/HI
 _2732_/LO
 _2733_/HI
 _2733_/LO
 _2734_/HI
 _2734_/LO
 _2735_/HI
 _2735_/LO
 _2736_/HI
 _2736_/LO
 _2737_/HI
 _2737_/LO
 _2738_/HI
 _2738_/LO
Found 0 partially unannotated drivers.

===========================================================================
max slew violation count 0
max fanout violation count 0
max cap violation count 0
============================================================================

===========================================================================
check_setup -verbose -unconstrained_endpoints -multiple_clock -no_clock -no_input_delay -loops -generated_clocks
===========================================================================
Warning: There are 9 unconstrained endpoints.
  RDY_ma_start
  ma_start[10]
  ma_start[11]
  ma_start[12]
  ma_start[13]
  ma_start[2]
  ma_start[3]
  ma_start[4]
  ma_start[5]
